EESchema Schematic File Version 4
EELAYER 30 0
EELAYER END
$Descr A4 11693 8268
encoding utf-8
Sheet 1 1
Title "Spot welder"
Date "2020-08-21"
Rev "RevAA"
Comp "Stanislav Subrt"
Comment1 "Frydek-Mistek, Czech Republic"
Comment2 ""
Comment3 ""
Comment4 ""
$EndDescr
$Comp
L Device:R_Small R14
U 1 1 5DA51DF3
P 4900 7050
F 0 "R14" H 4930 7070 50  0000 L CNN
F 1 "1K" H 4930 7010 50  0000 L CNN
F 2 "Resistor_SMD:R_0805_2012Metric" H 4900 7050 50  0001 C CNN
F 3 "~" H 4900 7050 50  0001 C CNN
	1    4900 7050
	1    0    0    1   
$EndComp
$Comp
L Device:LED_Small D4
U 1 1 5DA52B7B
P 4900 6800
F 0 "D4" H 4900 6900 50  0000 C CNN
F 1 "RED" H 4900 6700 50  0000 C CNN
F 2 "Diode_SMD:D_1206_3216Metric" V 4900 6800 50  0001 C CNN
F 3 "~" V 4900 6800 50  0001 C CNN
	1    4900 6800
	0    -1   -1   0   
$EndComp
$Comp
L Regulator_Linear:LM1117-3.3 U5
U 1 1 5E4D375F
P 5950 6600
F 0 "U5" H 6050 6300 50  0000 C CNN
F 1 "LM1117-3.3" H 5950 6750 50  0000 C CNN
F 2 "Package_TO_SOT_SMD:SOT-223-3_TabPin2" H 5950 6600 50  0001 C CNN
F 3 "http://www.ti.com/lit/ds/symlink/lm1117.pdf" H 5950 6600 50  0001 C CNN
	1    5950 6600
	1    0    0    -1  
$EndComp
Wire Wire Line
	5550 6600 5650 6600
$Comp
L Device:C_Small C12
U 1 1 5E73A5DE
P 5550 6900
F 0 "C12" H 5560 6970 50  0000 L CNN
F 1 "10u" H 5560 6820 50  0000 L CNN
F 2 "Capacitor_SMD:C_0805_2012Metric" H 5550 6900 50  0001 C CNN
F 3 "~" H 5550 6900 50  0001 C CNN
	1    5550 6900
	-1   0    0    1   
$EndComp
$Comp
L Device:C_Small C13
U 1 1 5E73B161
P 6350 6900
F 0 "C13" H 6360 6970 50  0000 L CNN
F 1 "10u" H 6360 6820 50  0000 L CNN
F 2 "Capacitor_SMD:C_0805_2012Metric" H 6350 6900 50  0001 C CNN
F 3 "~" H 6350 6900 50  0001 C CNN
	1    6350 6900
	1    0    0    1   
$EndComp
Wire Wire Line
	5550 6800 5550 6600
Wire Wire Line
	6250 6600 6350 6600
Wire Wire Line
	6350 6600 6350 6800
Wire Wire Line
	6350 6600 6400 6600
Connection ~ 6350 6600
$Comp
L power:+3V3 #PWR028
U 1 1 5E799AE3
P 6400 6600
F 0 "#PWR028" H 6400 6450 50  0001 C CNN
F 1 "+3V3" V 6300 6650 50  0000 C CNN
F 2 "" H 6400 6600 50  0001 C CNN
F 3 "" H 6400 6600 50  0001 C CNN
	1    6400 6600
	0    1    1    0   
$EndComp
Text GLabel 10550 4200 2    50   Output ~ 0
E2
Text GLabel 10550 3550 2    50   Output ~ 0
E1
Wire Bus Line
	8200 4250 8250 4250
Wire Bus Line
	8300 4250 8350 4250
Wire Bus Line
	8400 4250 8450 4250
Text Notes 8250 4200 0    50   ~ 0
20x
$Comp
L power:GND #PWR030
U 1 1 5E2FDC96
P 7800 4750
F 0 "#PWR030" H 7800 4500 50  0001 C CNN
F 1 "GND" H 7800 4600 50  0000 C CNN
F 2 "" H 7800 4750 50  0001 C CNN
F 3 "" H 7800 4750 50  0001 C CNN
	1    7800 4750
	1    0    0    -1  
$EndComp
$Comp
L Device:CP C16
U 1 1 5E34721C
P 8550 4100
F 0 "C16" H 8575 4200 50  0000 L CNN
F 1 "4m7/50V" H 8600 4300 50  0000 L CNN
F 2 "" H 8588 3950 50  0001 C CNN
F 3 "~" H 8550 4100 50  0001 C CNN
	1    8550 4100
	-1   0    0    -1  
$EndComp
$Comp
L Device:CP C15
U 1 1 5E348658
P 8100 4100
F 0 "C15" H 8125 4200 50  0000 L CNN
F 1 "4m7/50V" H 8125 4000 50  0001 L CNN
F 2 "" H 8138 3950 50  0001 C CNN
F 3 "~" H 8100 4100 50  0001 C CNN
	1    8100 4100
	1    0    0    -1  
$EndComp
$Comp
L Device:CP C14
U 1 1 5E350735
P 7800 4100
F 0 "C14" H 7825 4200 50  0000 L CNN
F 1 "4m7/50V" H 7825 4000 50  0001 L CNN
F 2 "" H 7838 3950 50  0001 C CNN
F 3 "~" H 7800 4100 50  0001 C CNN
	1    7800 4100
	1    0    0    -1  
$EndComp
Wire Wire Line
	7800 4750 7800 4700
Wire Wire Line
	7800 3950 7800 3550
Wire Wire Line
	7800 3550 8100 3550
Wire Wire Line
	8100 3950 8100 3550
Connection ~ 8100 3550
Wire Wire Line
	8100 3550 8550 3550
Connection ~ 8550 3550
Wire Wire Line
	8550 3550 10550 3550
Wire Wire Line
	8550 3550 8550 3950
Wire Wire Line
	8550 4700 8100 4700
Connection ~ 7800 4700
Connection ~ 8100 4700
Wire Wire Line
	8100 4700 7800 4700
Wire Wire Line
	7800 4250 7800 4700
Wire Wire Line
	8100 4250 8100 4700
Wire Wire Line
	8550 4250 8550 4700
Wire Wire Line
	9700 4200 10050 4200
Connection ~ 8550 4700
Text Notes 7650 3450 0    50   ~ 0
Capacitor bank 20 x 4.6 = 94 mF\nE = 75.2 Ws (J) @ 40 V
$Comp
L Device:R_Small R18
U 1 1 5E4A0E7D
P 6250 3700
F 0 "R18" H 6280 3720 50  0000 L CNN
F 1 "10K" H 6280 3660 50  0000 L CNN
F 2 "Resistor_SMD:R_0805_2012Metric" H 6250 3700 50  0001 C CNN
F 3 "~" H 6250 3700 50  0001 C CNN
	1    6250 3700
	-1   0    0    1   
$EndComp
$Comp
L Regulator_Linear:LM317_TO3 U2
U 1 1 5E501847
P 3800 6600
F 0 "U2" H 3900 6350 50  0000 C CNN
F 1 "LM317_TO3" H 3600 6750 50  0000 L CNN
F 2 "Package_TO_SOT_THT:TO-3" H 3800 6800 50  0001 C CIN
F 3 "http://www.ti.com/lit/ds/symlink/lm317.pdf" H 3800 6600 50  0001 C CNN
	1    3800 6600
	1    0    0    -1  
$EndComp
$Comp
L power:+36V #PWR022
U 1 1 5E50237A
P 4950 3550
F 0 "#PWR022" H 4950 3400 50  0001 C CNN
F 1 "+36V" H 4950 3690 50  0000 C CNN
F 2 "" H 4950 3550 50  0001 C CNN
F 3 "" H 4950 3550 50  0001 C CNN
	1    4950 3550
	0    -1   -1   0   
$EndComp
$Comp
L Device:R_Small R16
U 1 1 5E50B192
P 5900 3550
F 0 "R16" H 5930 3570 50  0000 L CNN
F 1 "0R6/2W" H 5930 3510 50  0000 L CNN
F 2 "Resistor_SMD:R_0805_2012Metric" H 5900 3550 50  0001 C CNN
F 3 "~" H 5900 3550 50  0001 C CNN
	1    5900 3550
	0    -1   1    0   
$EndComp
Wire Wire Line
	5750 3550 5800 3550
Wire Wire Line
	5450 3850 5450 3900
Wire Wire Line
	5450 3900 6050 3900
Wire Wire Line
	6050 3900 6050 3550
Wire Wire Line
	6050 3550 6000 3550
Connection ~ 6050 3550
Wire Wire Line
	5150 3550 5050 3550
$Comp
L Device:C_Small C9
U 1 1 5E5489CC
P 5050 3700
F 0 "C9" H 5060 3770 50  0000 L CNN
F 1 "1u" H 5060 3620 50  0000 L CNN
F 2 "Capacitor_SMD:C_0805_2012Metric" H 5050 3700 50  0001 C CNN
F 3 "~" H 5050 3700 50  0001 C CNN
	1    5050 3700
	1    0    0    -1  
$EndComp
$Comp
L power:GND #PWR024
U 1 1 5E54F3FA
P 5050 3850
F 0 "#PWR024" H 5050 3600 50  0001 C CNN
F 1 "GND" H 5050 3700 50  0000 C CNN
F 2 "" H 5050 3850 50  0001 C CNN
F 3 "" H 5050 3850 50  0001 C CNN
	1    5050 3850
	1    0    0    -1  
$EndComp
Wire Wire Line
	5050 3600 5050 3550
Connection ~ 5050 3550
Wire Wire Line
	5050 3850 5050 3800
Text Notes 4450 3150 0    50   ~ 0
Constant current source (2 A) to charge\ncapacitor bank on demand.
$Comp
L Device:R_Small R6
U 1 1 5E5B6239
P 2800 6750
F 0 "R6" H 2830 6770 50  0000 L CNN
F 1 "150K" H 2830 6710 50  0000 L CNN
F 2 "Resistor_SMD:R_0805_2012Metric" H 2800 6750 50  0001 C CNN
F 3 "~" H 2800 6750 50  0001 C CNN
	1    2800 6750
	1    0    0    1   
$EndComp
$Comp
L Device:R_Small R7
U 1 1 5E5B6643
P 2800 7050
F 0 "R7" H 2830 7070 50  0000 L CNN
F 1 "10K" H 2830 7010 50  0000 L CNN
F 2 "Resistor_SMD:R_0805_2012Metric" H 2800 7050 50  0001 C CNN
F 3 "~" H 2800 7050 50  0001 C CNN
	1    2800 7050
	1    0    0    1   
$EndComp
Wire Wire Line
	2800 6950 2800 6900
Wire Wire Line
	2800 6650 2800 6600
Connection ~ 2800 6900
Wire Wire Line
	2800 6900 2800 6850
Wire Wire Line
	3150 6900 2800 6900
Text Label 3100 6900 2    50   ~ 0
VBAT
$Comp
L Device:R_Small R20
U 1 1 5E5ECAB7
P 7500 4250
F 0 "R20" H 7530 4270 50  0000 L CNN
F 1 "150K" H 7530 4210 50  0000 L CNN
F 2 "Resistor_SMD:R_0805_2012Metric" H 7500 4250 50  0001 C CNN
F 3 "~" H 7500 4250 50  0001 C CNN
	1    7500 4250
	1    0    0    1   
$EndComp
$Comp
L Device:R_Small R21
U 1 1 5E5ECABD
P 7500 4550
F 0 "R21" H 7530 4570 50  0000 L CNN
F 1 "10K" H 7530 4510 50  0000 L CNN
F 2 "Resistor_SMD:R_0805_2012Metric" H 7500 4550 50  0001 C CNN
F 3 "~" H 7500 4550 50  0001 C CNN
	1    7500 4550
	1    0    0    1   
$EndComp
Wire Wire Line
	7500 4450 7500 4400
Connection ~ 7500 4400
Wire Wire Line
	7500 4400 7500 4350
Wire Wire Line
	7150 4400 7500 4400
Wire Wire Line
	7500 3550 7800 3550
Wire Wire Line
	7500 3550 7500 4150
Connection ~ 7800 3550
Text Label 7200 4400 0    50   ~ 0
VCAP
Wire Wire Line
	7500 4700 7800 4700
Wire Wire Line
	7500 4650 7500 4700
$Comp
L Device:R_Small R24
U 1 1 5E614C9E
P 9700 4900
F 0 "R24" H 9730 4920 50  0000 L CNN
F 1 "150K" H 9730 4860 50  0000 L CNN
F 2 "Resistor_SMD:R_0805_2012Metric" H 9700 4900 50  0001 C CNN
F 3 "~" H 9700 4900 50  0001 C CNN
	1    9700 4900
	1    0    0    1   
$EndComp
$Comp
L Device:R_Small R25
U 1 1 5E61522E
P 9700 5300
F 0 "R25" H 9730 5320 50  0000 L CNN
F 1 "10K" H 9730 5260 50  0000 L CNN
F 2 "Resistor_SMD:R_0805_2012Metric" H 9700 5300 50  0001 C CNN
F 3 "~" H 9700 5300 50  0001 C CNN
	1    9700 5300
	1    0    0    1   
$EndComp
Wire Wire Line
	9700 5000 9700 5100
Connection ~ 9700 5100
Wire Wire Line
	9700 5100 9700 5200
$Comp
L power:GND #PWR031
U 1 1 5E62DE0D
P 9700 5500
F 0 "#PWR031" H 9700 5250 50  0001 C CNN
F 1 "GND" H 9700 5350 50  0000 C CNN
F 2 "" H 9700 5500 50  0001 C CNN
F 3 "" H 9700 5500 50  0001 C CNN
	1    9700 5500
	1    0    0    -1  
$EndComp
Wire Wire Line
	9700 5500 9700 5450
Text Notes 7400 4250 1    50   ~ 0
Capacitor bank\nvoltage sensing\n
$Comp
L Device:C_Small C8
U 1 1 5EA0EA09
P 4550 6900
F 0 "C8" H 4560 6970 50  0000 L CNN
F 1 "10u" H 4560 6820 50  0000 L CNN
F 2 "Capacitor_SMD:C_0805_2012Metric" H 4550 6900 50  0001 C CNN
F 3 "~" H 4550 6900 50  0001 C CNN
	1    4550 6900
	-1   0    0    1   
$EndComp
$Comp
L Device:C_Small C7
U 1 1 5EA0EEC5
P 3400 6900
F 0 "C7" H 3410 6970 50  0000 L CNN
F 1 "10u" H 3410 6820 50  0000 L CNN
F 2 "Capacitor_SMD:C_0805_2012Metric" H 3400 6900 50  0001 C CNN
F 3 "~" H 3400 6900 50  0001 C CNN
	1    3400 6900
	-1   0    0    1   
$EndComp
$Comp
L Device:R_Small R11
U 1 1 5EA0F256
P 4200 6800
F 0 "R11" H 4230 6820 50  0000 L CNN
F 1 "1K" H 4230 6760 50  0000 L CNN
F 2 "Resistor_SMD:R_0805_2012Metric" H 4200 6800 50  0001 C CNN
F 3 "~" H 4200 6800 50  0001 C CNN
	1    4200 6800
	1    0    0    1   
$EndComp
$Comp
L Device:R_Small R9
U 1 1 5EA0F5CE
P 3800 7100
F 0 "R9" H 3830 7120 50  0000 L CNN
F 1 "8K6" H 3830 7060 50  0000 L CNN
F 2 "Resistor_SMD:R_0805_2012Metric" H 3800 7100 50  0001 C CNN
F 3 "~" H 3800 7100 50  0001 C CNN
	1    3800 7100
	1    0    0    1   
$EndComp
Wire Wire Line
	3500 6600 3400 6600
Wire Wire Line
	3400 6800 3400 6600
Connection ~ 3400 6600
$Comp
L power:GND #PWR018
U 1 1 5EA34142
P 3800 7300
F 0 "#PWR018" H 3800 7050 50  0001 C CNN
F 1 "GND" H 3800 7150 50  0000 C CNN
F 2 "" H 3800 7300 50  0001 C CNN
F 3 "" H 3800 7300 50  0001 C CNN
	1    3800 7300
	1    0    0    -1  
$EndComp
Wire Wire Line
	3800 6900 3800 6950
Wire Wire Line
	3800 6950 4200 6950
Wire Wire Line
	4200 6950 4200 6900
Connection ~ 3800 6950
Wire Wire Line
	3800 6950 3800 7000
Wire Wire Line
	4100 6600 4200 6600
Wire Wire Line
	4550 6600 4550 6800
Wire Wire Line
	4200 6700 4200 6600
Connection ~ 4200 6600
Wire Wire Line
	4200 6600 4550 6600
Wire Wire Line
	3800 7300 3800 7250
Wire Wire Line
	3800 7250 3400 7250
Wire Wire Line
	3400 7000 3400 7250
Connection ~ 3800 7250
Wire Wire Line
	3800 7250 3800 7200
Wire Wire Line
	3800 7250 4550 7250
Wire Wire Line
	4550 7250 4550 7000
Wire Wire Line
	4900 6600 4900 6700
Connection ~ 4550 6600
Wire Wire Line
	4900 7250 4900 7150
Connection ~ 4550 7250
Wire Wire Line
	4900 6950 4900 6900
Connection ~ 4900 6600
Wire Wire Line
	4900 6600 5550 6600
Connection ~ 5550 6600
Wire Wire Line
	3400 6250 3400 6600
Wire Wire Line
	4200 6250 4200 6600
Wire Wire Line
	4950 3550 5050 3550
Wire Wire Line
	5050 3200 5050 3550
Wire Wire Line
	6050 3200 6050 3550
Wire Wire Line
	6350 6600 6350 6250
Wire Wire Line
	5550 6250 5550 6600
$Comp
L Device:D_TVS D1
U 1 1 5ED92886
P 1650 6850
F 0 "D1" H 1650 6950 50  0000 C CNN
F 1 "45V" H 1650 6750 50  0000 C CNN
F 2 "" H 1650 6850 50  0001 C CNN
F 3 "~" H 1650 6850 50  0001 C CNN
	1    1650 6850
	0    1    1    0   
$EndComp
$Comp
L Device:Fuse F1
U 1 1 5ED9471A
P 1400 6600
F 0 "F1" V 1480 6600 50  0000 C CNN
F 1 "5A" V 1325 6600 50  0000 C CNN
F 2 "" V 1330 6600 50  0001 C CNN
F 3 "~" H 1400 6600 50  0001 C CNN
	1    1400 6600
	0    1    1    0   
$EndComp
$Comp
L Device:D_Zener_Small D2
U 1 1 5EDA2D96
P 2250 6800
F 0 "D2" H 2250 6890 50  0000 C CNN
F 1 "12V" H 2250 6700 50  0000 C CNN
F 2 "" V 2250 6800 50  0001 C CNN
F 3 "~" V 2250 6800 50  0001 C CNN
	1    2250 6800
	0    -1   1    0   
$EndComp
$Comp
L Device:R_Small R5
U 1 1 5EDA5742
P 1950 7100
F 0 "R5" H 1980 7120 50  0000 L CNN
F 1 "10K" H 1980 7060 50  0000 L CNN
F 2 "Resistor_SMD:R_0805_2012Metric" H 1950 7100 50  0001 C CNN
F 3 "~" H 1950 7100 50  0001 C CNN
	1    1950 7100
	-1   0    0    1   
$EndComp
$Comp
L power:GND #PWR010
U 1 1 5EDA5A27
P 1950 7300
F 0 "#PWR010" H 1950 7050 50  0001 C CNN
F 1 "GND" H 1950 7150 50  0000 C CNN
F 2 "" H 1950 7300 50  0001 C CNN
F 3 "" H 1950 7300 50  0001 C CNN
	1    1950 7300
	1    0    0    -1  
$EndComp
Wire Wire Line
	1950 7000 1950 6950
Wire Wire Line
	2250 6900 2250 6950
Wire Wire Line
	2250 6950 1950 6950
Connection ~ 1950 6950
Wire Wire Line
	1950 6950 1950 6900
Wire Wire Line
	2150 6600 2250 6600
Wire Wire Line
	2250 6700 2250 6600
Connection ~ 2250 6600
Wire Wire Line
	1650 6700 1650 6600
Wire Wire Line
	1650 6600 1750 6600
Wire Wire Line
	1650 6600 1550 6600
Connection ~ 1650 6600
$Comp
L Connector:Screw_Terminal_01x02 J1
U 1 1 5EE17E7A
P 950 6700
F 0 "J1" H 950 6800 50  0000 C CNN
F 1 "Screw_Terminal_01x02" V 1050 6650 50  0001 C CNN
F 2 "" H 950 6700 50  0001 C CNN
F 3 "~" H 950 6700 50  0001 C CNN
	1    950  6700
	-1   0    0    1   
$EndComp
Wire Wire Line
	1150 6600 1250 6600
Wire Wire Line
	1150 6700 1250 6700
Wire Wire Line
	1250 6700 1250 6800
$Comp
L power:GND #PWR04
U 1 1 5EE26B60
P 1250 6800
F 0 "#PWR04" H 1250 6550 50  0001 C CNN
F 1 "GND" H 1250 6650 50  0000 C CNN
F 2 "" H 1250 6800 50  0001 C CNN
F 3 "" H 1250 6800 50  0001 C CNN
	1    1250 6800
	1    0    0    -1  
$EndComp
Wire Wire Line
	1650 7000 1650 7250
Wire Wire Line
	1650 7250 1950 7250
Wire Wire Line
	1950 7250 1950 7200
Wire Wire Line
	1950 7250 1950 7300
Connection ~ 1950 7250
$Comp
L power:+36V #PWR013
U 1 1 5EE6FFFA
P 2500 6550
F 0 "#PWR013" H 2500 6400 50  0001 C CNN
F 1 "+36V" H 2500 6690 50  0000 C CNN
F 2 "" H 2500 6550 50  0001 C CNN
F 3 "" H 2500 6550 50  0001 C CNN
	1    2500 6550
	1    0    0    -1  
$EndComp
$Comp
L Device:CP_Small C6
U 1 1 5EE8E024
P 2500 6900
F 0 "C6" H 2510 6970 50  0000 L CNN
F 1 "100u/50V" V 2650 6700 50  0000 L CNN
F 2 "" H 2500 6900 50  0001 C CNN
F 3 "~" H 2500 6900 50  0001 C CNN
	1    2500 6900
	1    0    0    -1  
$EndComp
Wire Wire Line
	2500 6600 2500 6800
Wire Wire Line
	2250 6600 2500 6600
Wire Wire Line
	1950 7250 2500 7250
Wire Wire Line
	2500 7250 2500 7000
Wire Wire Line
	2500 6550 2500 6600
Connection ~ 2500 6600
Wire Wire Line
	2500 6600 2800 6600
Wire Wire Line
	2500 7250 2800 7250
Wire Wire Line
	2800 7150 2800 7250
Connection ~ 2500 7250
Wire Wire Line
	2800 6600 3400 6600
Connection ~ 2800 6600
$Comp
L Device:D_Zener_Small D7
U 1 1 5F1227E7
P 6450 3700
F 0 "D7" H 6450 3790 50  0000 C CNN
F 1 "12V" H 6450 3600 50  0000 C CNN
F 2 "" V 6450 3700 50  0001 C CNN
F 3 "~" V 6450 3700 50  0001 C CNN
	1    6450 3700
	0    -1   1    0   
$EndComp
$Comp
L Device:R_Small R19
U 1 1 5F1234BF
P 6700 4050
F 0 "R19" H 6730 4070 50  0000 L CNN
F 1 "10K" H 6730 4010 50  0000 L CNN
F 2 "Resistor_SMD:R_0805_2012Metric" H 6700 4050 50  0001 C CNN
F 3 "~" H 6700 4050 50  0001 C CNN
	1    6700 4050
	-1   0    0    1   
$EndComp
Connection ~ 7500 3550
Wire Wire Line
	6700 4200 6700 4150
Wire Wire Line
	6700 3850 6700 3900
Wire Wire Line
	6700 3900 6450 3900
Wire Wire Line
	6450 3900 6450 3800
Connection ~ 6700 3900
Wire Wire Line
	6700 3900 6700 3950
Wire Wire Line
	6450 3600 6450 3550
Connection ~ 6450 3550
Wire Wire Line
	6450 3550 6500 3550
Wire Wire Line
	6450 3900 6250 3900
Wire Wire Line
	6250 3900 6250 3800
Connection ~ 6450 3900
Wire Wire Line
	6250 3600 6250 3550
Connection ~ 6250 3550
Wire Wire Line
	6250 3550 6450 3550
$Comp
L power:GND #PWR029
U 1 1 5F252B7C
P 6700 4650
F 0 "#PWR029" H 6700 4400 50  0001 C CNN
F 1 "GND" H 6700 4500 50  0000 C CNN
F 2 "" H 6700 4650 50  0001 C CNN
F 3 "" H 6700 4650 50  0001 C CNN
	1    6700 4650
	1    0    0    -1  
$EndComp
Wire Wire Line
	6050 3550 6250 3550
Wire Wire Line
	6900 3550 7500 3550
$Comp
L power:+12V #PWR021
U 1 1 5E311492
P 4550 6550
F 0 "#PWR021" H 4550 6400 50  0001 C CNN
F 1 "+12V" H 4550 6690 50  0000 C CNN
F 2 "" H 4550 6550 50  0001 C CNN
F 3 "" H 4550 6550 50  0001 C CNN
	1    4550 6550
	1    0    0    -1  
$EndComp
Wire Wire Line
	4550 6550 4550 6600
Wire Wire Line
	4900 7250 5550 7250
Connection ~ 4900 7250
Connection ~ 5550 7250
Wire Wire Line
	5550 7250 5950 7250
Wire Wire Line
	5950 7250 6350 7250
Connection ~ 5950 7250
Wire Wire Line
	6350 7000 6350 7250
Wire Wire Line
	5550 7000 5550 7250
Wire Wire Line
	5950 6900 5950 7250
Wire Wire Line
	6000 4750 6000 4400
$Comp
L SpotWelder-rescue:IXYS4427N-WorkLib U3
U 1 1 5F376EAB
P 5300 4900
F 0 "U3" H 5300 4900 50  0000 C CNN
F 1 "IXYS4427N" H 5400 4450 50  0000 L CNN
F 2 "Package_SO:SOIC-8_3.9x4.9mm_P1.27mm" H 5300 4300 50  0001 C CNN
F 3 "https://www.tme.eu/Document/c85a3e372a67d8b87bb4b39d95b6b1e5/IX4426-27-28.pdf" H 4900 5400 50  0001 C CNN
	1    5300 4900
	1    0    0    -1  
$EndComp
Connection ~ 6000 4750
Connection ~ 5850 5050
Wire Wire Line
	5850 5150 5850 5050
Wire Wire Line
	5700 5050 5850 5050
Text Label 4300 5050 0    50   ~ 0
WELD
Text Label 4300 4750 0    50   ~ 0
CHARGE
Wire Wire Line
	6000 4750 6000 5150
Wire Wire Line
	5700 4750 6000 4750
Wire Wire Line
	5850 5450 6000 5450
Connection ~ 5850 5450
Wire Wire Line
	5850 5350 5850 5450
Wire Wire Line
	6000 5450 6000 5350
Wire Wire Line
	5300 5450 5850 5450
$Comp
L Device:R_Small R17
U 1 1 5E4A1C2B
P 6000 5250
F 0 "R17" H 6030 5270 50  0000 L CNN
F 1 "10K" H 6030 5210 50  0000 L CNN
F 2 "Resistor_SMD:R_0805_2012Metric" H 6000 5250 50  0001 C CNN
F 3 "~" H 6000 5250 50  0001 C CNN
	1    6000 5250
	1    0    0    1   
$EndComp
$Comp
L Device:R_Small R15
U 1 1 5E4A123A
P 5850 5250
F 0 "R15" H 5880 5270 50  0000 L CNN
F 1 "10K" H 5880 5210 50  0000 L CNN
F 2 "Resistor_SMD:R_0805_2012Metric" H 5850 5250 50  0001 C CNN
F 3 "~" H 5850 5250 50  0001 C CNN
	1    5850 5250
	-1   0    0    1   
$EndComp
$Comp
L power:+12V #PWR025
U 1 1 5E49A31E
P 5300 4200
F 0 "#PWR025" H 5300 4050 50  0001 C CNN
F 1 "+12V" H 5300 4340 50  0000 C CNN
F 2 "" H 5300 4200 50  0001 C CNN
F 3 "" H 5300 4200 50  0001 C CNN
	1    5300 4200
	1    0    0    -1  
$EndComp
Wire Wire Line
	5000 4300 4950 4300
Wire Wire Line
	5650 4300 5600 4300
$Comp
L power:GND #PWR027
U 1 1 5E48EE00
P 5650 4300
F 0 "#PWR027" H 5650 4050 50  0001 C CNN
F 1 "GND" H 5650 4150 50  0000 C CNN
F 2 "" H 5650 4300 50  0001 C CNN
F 3 "" H 5650 4300 50  0001 C CNN
	1    5650 4300
	0    -1   -1   0   
$EndComp
$Comp
L power:GND #PWR023
U 1 1 5E48EB80
P 4950 4300
F 0 "#PWR023" H 4950 4050 50  0001 C CNN
F 1 "GND" H 4950 4150 50  0000 C CNN
F 2 "" H 4950 4300 50  0001 C CNN
F 3 "" H 4950 4300 50  0001 C CNN
	1    4950 4300
	0    1    1    0   
$EndComp
Wire Wire Line
	5200 4300 5300 4300
Wire Wire Line
	5300 4300 5300 4200
Connection ~ 5300 4300
Wire Wire Line
	5400 4300 5300 4300
Wire Wire Line
	5300 4400 5300 4300
$Comp
L Device:C_Small C11
U 1 1 5E47DDDC
P 5500 4300
F 0 "C11" H 5510 4370 50  0000 L CNN
F 1 "100n" H 5510 4220 50  0000 L CNN
F 2 "Capacitor_SMD:C_0805_2012Metric" H 5500 4300 50  0001 C CNN
F 3 "~" H 5500 4300 50  0001 C CNN
	1    5500 4300
	0    -1   -1   0   
$EndComp
$Comp
L Device:C_Small C10
U 1 1 5E47D77E
P 5100 4300
F 0 "C10" H 5110 4370 50  0000 L CNN
F 1 "1u" H 5110 4220 50  0000 L CNN
F 2 "Capacitor_SMD:C_0805_2012Metric" H 5100 4300 50  0001 C CNN
F 3 "~" H 5100 4300 50  0001 C CNN
	1    5100 4300
	0    -1   -1   0   
$EndComp
Wire Wire Line
	4750 5450 5300 5450
Connection ~ 4750 5450
Wire Wire Line
	4750 5350 4750 5450
Wire Wire Line
	5300 5450 5300 5400
Connection ~ 5300 5450
Wire Wire Line
	4600 5350 4600 5450
Wire Wire Line
	4600 5450 4750 5450
Wire Wire Line
	4600 5050 4250 5050
Connection ~ 4600 5050
Wire Wire Line
	4600 5150 4600 5050
Wire Wire Line
	4750 4750 4250 4750
Connection ~ 4750 4750
Wire Wire Line
	4750 5150 4750 4750
Wire Wire Line
	4900 4750 4750 4750
Wire Wire Line
	4900 5050 4600 5050
$Comp
L Device:R_Small R12
U 1 1 5E44CE03
P 4600 5250
F 0 "R12" H 4630 5270 50  0000 L CNN
F 1 "10K" H 4630 5210 50  0000 L CNN
F 2 "Resistor_SMD:R_0805_2012Metric" H 4600 5250 50  0001 C CNN
F 3 "~" H 4600 5250 50  0001 C CNN
	1    4600 5250
	-1   0    0    1   
$EndComp
Wire Wire Line
	5300 5500 5300 5450
$Comp
L power:GND #PWR026
U 1 1 5E447B3A
P 5300 5500
F 0 "#PWR026" H 5300 5250 50  0001 C CNN
F 1 "GND" H 5300 5350 50  0000 C CNN
F 2 "" H 5300 5500 50  0001 C CNN
F 3 "" H 5300 5500 50  0001 C CNN
	1    5300 5500
	1    0    0    -1  
$EndComp
$Comp
L Device:R_Small R13
U 1 1 5E427966
P 4750 5250
F 0 "R13" H 4780 5270 50  0000 L CNN
F 1 "10K" H 4780 5210 50  0000 L CNN
F 2 "Resistor_SMD:R_0805_2012Metric" H 4750 5250 50  0001 C CNN
F 3 "~" H 4750 5250 50  0001 C CNN
	1    4750 5250
	1    0    0    1   
$EndComp
Wire Notes Line
	800  6050 6700 6050
Wire Notes Line
	6700 6050 6700 7550
Wire Notes Line
	6700 7550 800  7550
Wire Notes Line
	800  7550 800  6050
Text Label 9500 5100 0    50   ~ 0
VE2
Text Notes 9550 5450 2    50   ~ 0
E2 voltage sensing\n(detection of placement\nfor automatic discharges).
Wire Notes Line
	4100 5750 4100 2950
Wire Notes Line
	4100 2950 10850 2950
Wire Notes Line
	10850 2950 10850 5750
Wire Wire Line
	2900 2950 3450 2950
Wire Notes Line
	4450 750  4450 2700
Wire Notes Line
	800  750  4450 750 
$Comp
L MCU_ST_STM32F0:STM32F030F4Px U1
U 1 1 5DA4D175
P 2150 1900
F 0 "U1" H 1750 2550 50  0000 L CNN
F 1 "STM32F030F4Px" H 2350 2550 50  0000 L CNN
F 2 "Package_SO:TSSOP-20_4.4x6.5mm_P0.65mm" H 1750 1200 50  0001 R CNN
F 3 "http://www.st.com/st-web-ui/static/active/en/resource/technical/document/datasheet/DM00088500.pdf" H 2150 1900 50  0001 C CNN
	1    2150 1900
	1    0    0    -1  
$EndComp
$Comp
L power:GND #PWR012
U 1 1 5DA4DD3B
P 2150 2750
F 0 "#PWR012" H 2150 2500 50  0001 C CNN
F 1 "GND" H 2150 2600 50  0000 C CNN
F 2 "" H 2150 2750 50  0001 C CNN
F 3 "" H 2150 2750 50  0001 C CNN
	1    2150 2750
	1    0    0    -1  
$EndComp
Wire Wire Line
	2150 2750 2150 2700
$Comp
L power:GND #PWR09
U 1 1 5DA4E2E9
P 1750 1050
F 0 "#PWR09" H 1750 800 50  0001 C CNN
F 1 "GND" H 1750 900 50  0000 C CNN
F 2 "" H 1750 1050 50  0001 C CNN
F 3 "" H 1750 1050 50  0001 C CNN
	1    1750 1050
	0    1    1    0   
$EndComp
$Comp
L power:+3V3 #PWR011
U 1 1 5DA4F41E
P 2150 1000
F 0 "#PWR011" H 2150 850 50  0001 C CNN
F 1 "+3V3" H 2150 1140 50  0000 C CNN
F 2 "" H 2150 1000 50  0001 C CNN
F 3 "" H 2150 1000 50  0001 C CNN
	1    2150 1000
	1    0    0    -1  
$EndComp
$Comp
L Device:C_Small C4
U 1 1 5DA5044D
P 1900 1050
F 0 "C4" H 1910 1120 50  0000 L CNN
F 1 "100n" H 1910 970 50  0000 L CNN
F 2 "Capacitor_SMD:C_0805_2012Metric" H 1900 1050 50  0001 C CNN
F 3 "~" H 1900 1050 50  0001 C CNN
	1    1900 1050
	0    1    -1   0   
$EndComp
$Comp
L Device:C_Small C5
U 1 1 5DA51045
P 2500 1050
F 0 "C5" H 2510 1120 50  0000 L CNN
F 1 "100n" H 2510 970 50  0000 L CNN
F 2 "Capacitor_SMD:C_0805_2012Metric" H 2500 1050 50  0001 C CNN
F 3 "~" H 2500 1050 50  0001 C CNN
	1    2500 1050
	0    -1   -1   0   
$EndComp
Wire Wire Line
	2150 1200 2150 1050
Wire Wire Line
	2000 1050 2150 1050
Connection ~ 2150 1050
Wire Wire Line
	2150 1050 2150 1000
Wire Wire Line
	2250 1200 2250 1050
Wire Wire Line
	2250 1050 2400 1050
Wire Wire Line
	2250 1050 2150 1050
Connection ~ 2250 1050
$Comp
L power:GND #PWR014
U 1 1 5DA52D51
P 2650 1050
F 0 "#PWR014" H 2650 800 50  0001 C CNN
F 1 "GND" H 2650 900 50  0000 C CNN
F 2 "" H 2650 1050 50  0001 C CNN
F 3 "" H 2650 1050 50  0001 C CNN
	1    2650 1050
	0    -1   -1   0   
$EndComp
Wire Wire Line
	2600 1050 2650 1050
Text Label 2700 2400 0    50   ~ 0
SWD
Text Label 2700 2300 0    50   ~ 0
SDA
Text Label 2700 2200 0    50   ~ 0
SCL
$Comp
L Device:C_Small C1
U 1 1 5DA61328
P 1250 1400
F 0 "C1" H 1260 1470 50  0000 L CNN
F 1 "100n" H 1260 1320 50  0000 L CNN
F 2 "Capacitor_SMD:C_0805_2012Metric" H 1250 1400 50  0001 C CNN
F 3 "~" H 1250 1400 50  0001 C CNN
	1    1250 1400
	0    1    -1   0   
$EndComp
Wire Wire Line
	1750 1050 1800 1050
$Comp
L Device:R_Small R4
U 1 1 5DA6330E
P 1500 1600
F 0 "R4" H 1530 1620 50  0000 L CNN
F 1 "10K" H 1530 1560 50  0000 L CNN
F 2 "Resistor_SMD:R_0805_2012Metric" H 1500 1600 50  0001 C CNN
F 3 "~" H 1500 1600 50  0001 C CNN
	1    1500 1600
	0    1    1    0   
$EndComp
Wire Wire Line
	1600 1600 1650 1600
$Comp
L power:GND #PWR01
U 1 1 5DA65490
P 1100 1400
F 0 "#PWR01" H 1100 1150 50  0001 C CNN
F 1 "GND" H 1100 1250 50  0000 C CNN
F 2 "" H 1100 1400 50  0001 C CNN
F 3 "" H 1100 1400 50  0001 C CNN
	1    1100 1400
	0    1    1    0   
$EndComp
Wire Wire Line
	1100 1400 1150 1400
$Comp
L power:GND #PWR07
U 1 1 5DA65C04
P 1350 1600
F 0 "#PWR07" H 1350 1350 50  0001 C CNN
F 1 "GND" H 1350 1450 50  0000 C CNN
F 2 "" H 1350 1600 50  0001 C CNN
F 3 "" H 1350 1600 50  0001 C CNN
	1    1350 1600
	0    1    1    0   
$EndComp
Wire Wire Line
	1350 1600 1400 1600
$Comp
L Device:R_Small R3
U 1 1 5DA6645D
P 1400 1200
F 0 "R3" H 1430 1220 50  0000 L CNN
F 1 "10K" H 1430 1160 50  0000 L CNN
F 2 "Resistor_SMD:R_0805_2012Metric" H 1400 1200 50  0001 C CNN
F 3 "~" H 1400 1200 50  0001 C CNN
	1    1400 1200
	-1   0    0    1   
$EndComp
Wire Wire Line
	1350 1400 1400 1400
Wire Wire Line
	1400 1300 1400 1400
Connection ~ 1400 1400
Wire Wire Line
	1400 1400 1650 1400
$Comp
L power:+3V3 #PWR08
U 1 1 5DA674AE
P 1400 1050
F 0 "#PWR08" H 1400 900 50  0001 C CNN
F 1 "+3V3" H 1400 1190 50  0000 C CNN
F 2 "" H 1400 1050 50  0001 C CNN
F 3 "" H 1400 1050 50  0001 C CNN
	1    1400 1050
	1    0    0    -1  
$EndComp
Wire Wire Line
	1400 1050 1400 1100
Text Label 1450 1400 0    50   ~ 0
NRST
Text Label 2700 2500 0    50   ~ 0
SWCLK
Wire Wire Line
	2650 2500 2900 2500
Text Label 2700 1400 0    50   ~ 0
VBAT
Text Label 2700 1500 0    50   ~ 0
VCAP
Wire Wire Line
	2650 1400 2900 1400
Text Label 2700 1600 0    50   ~ 0
VE2
Wire Wire Line
	2650 1500 2900 1500
Wire Wire Line
	2650 1600 2900 1600
$Comp
L Device:Crystal_Small Y1
U 1 1 5E3ED6B3
P 1400 2150
F 0 "Y1" H 1400 2250 50  0000 C CNN
F 1 "8MHz" H 1400 2050 50  0000 C CNN
F 2 "Crystal:Crystal_SMD_HC49-SD" H 1400 2150 50  0001 C CNN
F 3 "~" H 1400 2150 50  0001 C CNN
	1    1400 2150
	0    -1   1    0   
$EndComp
$Comp
L Device:C_Small C2
U 1 1 5E3F006E
P 1250 2000
F 0 "C2" H 1260 2070 50  0000 L CNN
F 1 "10n" H 1260 1920 50  0000 L CNN
F 2 "Capacitor_SMD:C_0805_2012Metric" H 1250 2000 50  0001 C CNN
F 3 "~" H 1250 2000 50  0001 C CNN
	1    1250 2000
	0    -1   -1   0   
$EndComp
$Comp
L Device:C_Small C3
U 1 1 5E3F12DE
P 1250 2300
F 0 "C3" H 1260 2370 50  0000 L CNN
F 1 "10n" H 1260 2220 50  0000 L CNN
F 2 "Capacitor_SMD:C_0805_2012Metric" H 1250 2300 50  0001 C CNN
F 3 "~" H 1250 2300 50  0001 C CNN
	1    1250 2300
	0    -1   1    0   
$EndComp
Wire Wire Line
	1350 2000 1400 2000
Wire Wire Line
	1400 2000 1400 2050
Wire Wire Line
	1350 2300 1400 2300
Wire Wire Line
	1400 2300 1400 2250
$Comp
L power:GND #PWR03
U 1 1 5E407068
P 1100 2300
F 0 "#PWR03" H 1100 2050 50  0001 C CNN
F 1 "GND" H 1100 2150 50  0000 C CNN
F 2 "" H 1100 2300 50  0001 C CNN
F 3 "" H 1100 2300 50  0001 C CNN
	1    1100 2300
	0    1    1    0   
$EndComp
$Comp
L power:GND #PWR02
U 1 1 5E407753
P 1100 2000
F 0 "#PWR02" H 1100 1750 50  0001 C CNN
F 1 "GND" H 1100 1850 50  0000 C CNN
F 2 "" H 1100 2000 50  0001 C CNN
F 3 "" H 1100 2000 50  0001 C CNN
	1    1100 2000
	0    1    1    0   
$EndComp
Wire Wire Line
	1100 2000 1150 2000
Wire Wire Line
	1100 2300 1150 2300
Wire Wire Line
	1650 2200 1600 2200
Wire Wire Line
	1600 2200 1600 2000
Wire Wire Line
	1600 2000 1400 2000
Connection ~ 1400 2000
Connection ~ 1400 2300
Wire Wire Line
	3200 2650 3450 2650
Text Label 3200 2650 0    50   ~ 0
NRST
Wire Wire Line
	3200 2850 3450 2850
$Comp
L power:GND #PWR015
U 1 1 5DA68F9C
P 3200 2850
F 0 "#PWR015" H 3200 2600 50  0001 C CNN
F 1 "GND" H 3200 2700 50  0000 C CNN
F 2 "" H 3200 2850 50  0001 C CNN
F 3 "" H 3200 2850 50  0001 C CNN
	1    3200 2850
	0    1    1    0   
$EndComp
Wire Wire Line
	3350 2200 2650 2200
$Comp
L Connector:Conn_01x04_Male J2
U 1 1 5DA53C45
P 3650 2850
F 0 "J2" H 3650 3050 50  0000 C CNN
F 1 "SWD" V 3600 2800 50  0000 C CNN
F 2 "Connector_PinHeader_2.54mm:PinHeader_1x04_P2.54mm_Vertical" H 3650 2850 50  0001 C CNN
F 3 "~" H 3650 2850 50  0001 C CNN
	1    3650 2850
	-1   0    0    1   
$EndComp
Wire Wire Line
	2650 2300 3350 2300
Wire Wire Line
	3350 2300 3450 2200
Text Label 3200 2950 0    50   ~ 0
SWCLK
Text Label 3200 2750 0    50   ~ 0
SWD
Wire Wire Line
	1400 2300 1650 2300
Text Label 1600 3150 1    50   ~ 0
BTN3BUZ
Wire Wire Line
	2900 2500 2900 2950
Wire Wire Line
	3000 2750 3000 2400
Wire Wire Line
	2650 2400 3000 2400
Wire Wire Line
	3000 2750 3450 2750
Wire Wire Line
	2650 2000 3000 2000
Wire Wire Line
	2650 2100 3000 2100
Text Label 2700 1700 0    50   ~ 0
BTN1
Text Label 2700 1800 0    50   ~ 0
BTN2
Text Label 2700 2000 0    50   ~ 0
CHARGE
Text Label 2700 1900 0    50   ~ 0
DISCHARGE
$Comp
L Switch:SW_Push SW2
U 1 1 5E353C11
P 3150 1450
F 0 "SW2" H 3200 1550 50  0000 L CNN
F 1 "SW_Push" H 3150 1390 50  0000 C CNN
F 2 "Button_Switch_THT:SW_PUSH_6mm" H 3150 1650 50  0001 C CNN
F 3 "~" H 3150 1650 50  0001 C CNN
	1    3150 1450
	0    -1   1    0   
$EndComp
$Comp
L Switch:SW_Push SW3
U 1 1 5E35438D
P 3450 1450
F 0 "SW3" H 3500 1550 50  0000 L CNN
F 1 "SW_Push" H 3450 1390 50  0000 C CNN
F 2 "Button_Switch_THT:SW_PUSH_6mm" H 3450 1650 50  0001 C CNN
F 3 "~" H 3450 1650 50  0001 C CNN
	1    3450 1450
	-1   0    0    1   
$EndComp
Wire Wire Line
	3150 1250 3150 1200
Wire Wire Line
	3450 1200 3450 1250
Wire Wire Line
	3150 1700 3150 1650
Wire Wire Line
	3450 1800 3450 1650
Wire Wire Line
	2650 1900 3450 1900
Wire Wire Line
	3350 2200 3450 2300
Wire Wire Line
	3800 2300 3450 2300
Connection ~ 3800 2300
Wire Wire Line
	3800 2150 3800 2300
Wire Wire Line
	3900 2200 4100 2200
Connection ~ 3900 2200
Wire Wire Line
	3900 2150 3900 2200
Wire Wire Line
	4100 2300 3800 2300
$Comp
L Connector:Conn_01x04_Male J3
U 1 1 5DA54FB6
P 4300 2400
F 0 "J3" H 4300 2600 50  0000 C CNN
F 1 "Display" V 4250 2350 50  0000 C CNN
F 2 "Connector_PinHeader_2.54mm:PinHeader_1x04_P2.54mm_Vertical" H 4300 2400 50  0001 C CNN
F 3 "~" H 4300 2400 50  0001 C CNN
	1    4300 2400
	-1   0    0    1   
$EndComp
Wire Wire Line
	3900 2400 4100 2400
$Comp
L power:+3V3 #PWR019
U 1 1 5DA58B1E
P 3900 2400
F 0 "#PWR019" H 3900 2250 50  0001 C CNN
F 1 "+3V3" H 3850 2550 50  0000 C CNN
F 2 "" H 3900 2400 50  0001 C CNN
F 3 "" H 3900 2400 50  0001 C CNN
	1    3900 2400
	0    -1   -1   0   
$EndComp
Wire Wire Line
	4050 2500 4100 2500
$Comp
L power:GND #PWR020
U 1 1 5DA58159
P 4050 2500
F 0 "#PWR020" H 4050 2250 50  0001 C CNN
F 1 "GND" H 4050 2350 50  0000 C CNN
F 2 "" H 4050 2500 50  0001 C CNN
F 3 "" H 4050 2500 50  0001 C CNN
	1    4050 2500
	0    1    1    0   
$EndComp
Wire Wire Line
	3450 2200 3900 2200
Text Label 3950 2300 0    50   ~ 0
SCL
Text Label 3950 2200 0    50   ~ 0
SDA
Connection ~ 3800 1900
Wire Wire Line
	3800 1850 3800 1900
$Comp
L power:+3V3 #PWR017
U 1 1 5E6054CA
P 3800 1850
F 0 "#PWR017" H 3800 1700 50  0001 C CNN
F 1 "+3V3" H 3800 1990 50  0000 C CNN
F 2 "" H 3800 1850 50  0001 C CNN
F 3 "" H 3800 1850 50  0001 C CNN
	1    3800 1850
	1    0    0    -1  
$EndComp
Wire Wire Line
	3800 1950 3800 1900
Wire Wire Line
	3900 1900 3800 1900
Wire Wire Line
	3900 1950 3900 1900
$Comp
L Device:R_Small R10
U 1 1 5E5B215F
P 3900 2050
F 0 "R10" H 3750 2050 50  0000 C CNN
F 1 "10K" H 3750 2150 50  0000 C CNN
F 2 "Resistor_SMD:R_0805_2012Metric" H 3900 2050 50  0001 C CNN
F 3 "~" H 3900 2050 50  0001 C CNN
	1    3900 2050
	-1   0    0    -1  
$EndComp
$Comp
L Device:R_Small R8
U 1 1 5E5B1A6C
P 3800 2050
F 0 "R8" H 3950 2050 50  0000 C CNN
F 1 "10K" H 3950 2150 50  0000 C CNN
F 2 "Resistor_SMD:R_0805_2012Metric" H 3800 2050 50  0001 C CNN
F 3 "~" H 3800 2050 50  0001 C CNN
	1    3800 2050
	-1   0    0    -1  
$EndComp
$Comp
L power:GND #PWR06
U 1 1 5E7EAAFF
P 1300 3850
F 0 "#PWR06" H 1300 3600 50  0001 C CNN
F 1 "GND" H 1300 3700 50  0000 C CNN
F 2 "" H 1300 3850 50  0001 C CNN
F 3 "" H 1300 3850 50  0001 C CNN
	1    1300 3850
	1    0    0    -1  
$EndComp
Wire Wire Line
	1300 3850 1300 3800
Wire Wire Line
	1300 3550 1300 3450
$Comp
L Device:Buzzer BZ1
U 1 1 5E7EAB07
P 1000 3550
F 0 "BZ1" H 950 3350 50  0000 L CNN
F 1 "Buzzer" H 900 3250 50  0000 L CNN
F 2 "Buzzer_Beeper:Buzzer_12x9.5RM7.6" V 975 3650 50  0001 C CNN
F 3 "~" V 975 3650 50  0001 C CNN
	1    1000 3550
	-1   0    0    -1  
$EndComp
Wire Wire Line
	1100 3450 1300 3450
Wire Wire Line
	1300 3800 1150 3800
Wire Wire Line
	1150 3800 1150 3650
Wire Wire Line
	1150 3650 1100 3650
Connection ~ 1300 3800
Wire Wire Line
	1300 3800 1300 3750
$Comp
L Switch:SW_Push SW1
U 1 1 5E7EAB13
P 1300 2950
F 0 "SW1" H 1350 3050 50  0000 L CNN
F 1 "SW_Push" H 1300 2890 50  0000 C CNN
F 2 "Button_Switch_THT:SW_PUSH_6mm" H 1300 3150 50  0001 C CNN
F 3 "~" H 1300 3150 50  0001 C CNN
	1    1300 2950
	0    1    1    0   
$EndComp
$Comp
L Device:R_Small R2
U 1 1 5E7EAB19
P 1300 3650
F 0 "R2" H 1330 3670 50  0000 L CNN
F 1 "DNP" H 1330 3610 50  0000 L CNN
F 2 "Resistor_SMD:R_0805_2012Metric" H 1300 3650 50  0001 C CNN
F 3 "~" H 1300 3650 50  0001 C CNN
	1    1300 3650
	1    0    0    1   
$EndComp
Connection ~ 1300 3450
$Comp
L power:+3V3 #PWR05
U 1 1 5E7EAB20
P 1300 2700
F 0 "#PWR05" H 1300 2550 50  0001 C CNN
F 1 "+3V3" H 1300 2840 50  0000 C CNN
F 2 "" H 1300 2700 50  0001 C CNN
F 3 "" H 1300 2700 50  0001 C CNN
	1    1300 2700
	1    0    0    -1  
$EndComp
Wire Wire Line
	1300 2750 1300 2700
$Comp
L Device:R_Small R1
U 1 1 5E7EAB27
P 1300 3300
F 0 "R1" H 1330 3320 50  0000 L CNN
F 1 "300R" H 1330 3260 50  0000 L CNN
F 2 "Resistor_SMD:R_0805_2012Metric" H 1300 3300 50  0001 C CNN
F 3 "~" H 1300 3300 50  0001 C CNN
	1    1300 3300
	1    0    0    1   
$EndComp
Wire Wire Line
	1300 3400 1300 3450
Wire Wire Line
	1300 3150 1300 3200
Wire Wire Line
	1300 3450 1600 3450
Wire Wire Line
	1650 2500 1600 2500
Wire Wire Line
	1600 2500 1600 3450
Wire Notes Line
	4450 2700 3800 2700
Wire Notes Line
	3800 2700 3800 4100
Wire Notes Line
	3800 4100 800  4100
Wire Notes Line
	800  750  800  4100
Wire Notes Line
	4700 750  6250 750 
Wire Notes Line
	6250 750  6250 2700
Wire Notes Line
	6250 2700 4700 2700
Wire Notes Line
	4700 2700 4700 750 
$Comp
L 00_Mix:SQ2361ES Q1
U 1 1 5E3C50F9
P 1950 6600
F 0 "Q1" V 2000 6750 50  0000 L CNN
F 1 "SQ2361ES" V 2100 6400 50  0000 L CNN
F 2 "TO_SOT_Packages_SMD:SOT-23" H 2050 6500 50  0001 C CNN
F 3 "http://www.farnell.com/datasheets/2614537.pdf" H 1850 6600 50  0001 C CNN
	1    1950 6600
	0    1    -1   0   
$EndComp
$Comp
L 00_Mix:SQ2361ES Q3
U 1 1 5E3C786F
P 6700 3550
F 0 "Q3" V 6500 3350 50  0000 L CNN
F 1 "SQ2361ES" V 6850 3350 50  0000 L CNN
F 2 "TO_SOT_Packages_SMD:SOT-23" H 6800 3450 50  0001 C CNN
F 3 "http://www.farnell.com/datasheets/2614537.pdf" H 6600 3550 50  0001 C CNN
	1    6700 3550
	0    -1   -1   0   
$EndComp
Text Notes 900  6300 0    50   ~ 0
Power supply input terminal with reverse voltage,\nover voltage and overcurrent protection and voltage sensing
$Comp
L Device:D_Small D6
U 1 1 5E424F6A
P 5950 6250
F 0 "D6" H 5900 6330 50  0000 L CNN
F 1 "1N4007" H 5800 6170 50  0000 L CNN
F 2 "" V 5950 6250 50  0001 C CNN
F 3 "~" V 5950 6250 50  0001 C CNN
	1    5950 6250
	1    0    0    -1  
$EndComp
Wire Wire Line
	5550 6250 5850 6250
Wire Wire Line
	6050 6250 6350 6250
$Comp
L Device:D_Small D3
U 1 1 5E451E09
P 3800 6250
F 0 "D3" H 3750 6330 50  0000 L CNN
F 1 "1N4007" H 3650 6170 50  0000 L CNN
F 2 "" V 3800 6250 50  0001 C CNN
F 3 "~" V 3800 6250 50  0001 C CNN
	1    3800 6250
	1    0    0    -1  
$EndComp
Wire Wire Line
	3400 6250 3700 6250
Wire Wire Line
	3900 6250 4200 6250
Wire Wire Line
	4550 6600 4900 6600
Wire Wire Line
	4550 7250 4900 7250
$Comp
L Device:D_Small D5
U 1 1 5E49445C
P 5450 3200
F 0 "D5" H 5550 3150 50  0000 L CNN
F 1 "1N4007" H 5100 3100 50  0000 L CNN
F 2 "" V 5450 3200 50  0001 C CNN
F 3 "~" V 5450 3200 50  0001 C CNN
	1    5450 3200
	1    0    0    -1  
$EndComp
Wire Wire Line
	5050 3200 5350 3200
$Comp
L Transistor_FET:BSS138 Q2
U 1 1 5E4DC8A0
P 6600 4400
F 0 "Q2" H 6450 4250 50  0000 L CNN
F 1 "BSS138" V 6850 4250 50  0000 L CNN
F 2 "Package_TO_SOT_SMD:SOT-23" H 6800 4325 50  0001 L CIN
F 3 "https://www.fairchildsemi.com/datasheets/BS/BSS138.pdf" H 6600 4400 50  0001 L CNN
	1    6600 4400
	1    0    0    -1  
$EndComp
Text Notes 4850 2450 0    50   ~ 0
PARAMETERS:\nDischarge energy: max 75 Ws (J)\nSupply voltage: 8 - 40 VDC\nSupply current: 3 A\n\nReverse voltage protection\nOver voltage protection (fuse)\nOver current protection (fuse)\n\nSupply voltage sensing\nCapacitor voltage sensing\nDischarge current sensing\nBuzzer indicator\nCharging indicator\nPlacement indicator\n\nControl buttons (3x)\nDisplay 128 x 32 px
Wire Wire Line
	6700 4600 6700 4650
Wire Wire Line
	6000 4400 6400 4400
Wire Wire Line
	2650 1700 3150 1700
Wire Wire Line
	2650 1800 3450 1800
Text Label 2700 2100 0    50   ~ 0
WELD
$Comp
L Device:Q_SCR_KAG D8
U 1 1 5F4148F2
P 9000 4450
F 0 "D8" H 8850 4450 50  0000 L CNN
F 1 "BT158W-1200T" H 8700 4800 50  0000 L CNN
F 2 "" V 9000 4450 50  0001 C CNN
F 3 "~" V 9000 4450 50  0001 C CNN
	1    9000 4450
	1    0    0    -1  
$EndComp
$Comp
L Device:Q_SCR_KAG D9
U 1 1 5F416B01
P 9350 4450
F 0 "D9" H 9200 4450 50  0000 L CNN
F 1 "BT158W-1200T" H 9050 4900 50  0000 L CNN
F 2 "" V 9350 4450 50  0001 C CNN
F 3 "~" V 9350 4450 50  0001 C CNN
	1    9350 4450
	1    0    0    -1  
$EndComp
Wire Wire Line
	8550 4700 9000 4700
$Comp
L Device:R_Small R22
U 1 1 5F438F1D
P 8800 4900
F 0 "R22" H 8830 4920 50  0000 L CNN
F 1 "120R" H 8830 4860 50  0000 L CNN
F 2 "Resistor_SMD:R_0805_2012Metric" H 8800 4900 50  0001 C CNN
F 3 "~" H 8800 4900 50  0001 C CNN
	1    8800 4900
	-1   0    0    1   
$EndComp
$Comp
L Device:R_Small R23
U 1 1 5F43955D
P 9150 4900
F 0 "R23" H 9180 4920 50  0000 L CNN
F 1 "120R" H 9180 4860 50  0000 L CNN
F 2 "Resistor_SMD:R_0805_2012Metric" H 9150 4900 50  0001 C CNN
F 3 "~" H 9150 4900 50  0001 C CNN
	1    9150 4900
	-1   0    0    1   
$EndComp
$Comp
L Regulator_Linear:LM317_TO-220 U4
U 1 1 5F51945F
P 5450 3550
F 0 "U4" H 5450 3550 50  0000 C CNN
F 1 "LM317_TO-220" H 5150 3700 50  0000 L CNN
F 2 "Package_TO_SOT_THT:TO-220-3_Vertical" H 5450 3800 50  0001 C CIN
F 3 "http://www.ti.com/lit/ds/symlink/lm317.pdf" H 5450 3550 50  0001 C CNN
	1    5450 3550
	1    0    0    -1  
$EndComp
Wire Wire Line
	3150 1200 3300 1200
$Comp
L power:GND #PWR016
U 1 1 5F51B2B0
P 3300 1150
F 0 "#PWR016" H 3300 900 50  0001 C CNN
F 1 "GND" H 3300 1000 50  0000 C CNN
F 2 "" H 3300 1150 50  0001 C CNN
F 3 "" H 3300 1150 50  0001 C CNN
	1    3300 1150
	-1   0    0    1   
$EndComp
Wire Wire Line
	3300 1150 3300 1200
Wire Wire Line
	5550 3200 6050 3200
Connection ~ 3300 1200
Wire Wire Line
	3300 1200 3450 1200
Text Notes 1700 3250 0    50   ~ 0
PB1 is combined input\nfor button and output\nfor buzzer.
Text Notes 4400 2150 1    50   ~ 0
Connector for 128 x 64 px display\nwith SSD1306 driver.
Text Notes 6200 3300 0    50   ~ 0
Shall be placed on heatsink\n(average 20W power dissipation\nduring the charging for few\nhundreds of ms).
Text Notes 10750 3900 2    50   ~ 0
Welding electrodes
Wire Wire Line
	9700 4200 9700 4800
Wire Wire Line
	9700 4200 9350 4200
Wire Wire Line
	9000 4200 9000 4300
Connection ~ 9700 4200
Wire Wire Line
	9350 4300 9350 4200
Connection ~ 9350 4200
Wire Wire Line
	9350 4200 9000 4200
Wire Wire Line
	9350 4600 9350 4700
Wire Wire Line
	9000 4600 9000 4700
Connection ~ 9000 4700
Wire Wire Line
	9000 4700 9350 4700
Wire Wire Line
	5850 5050 8800 5050
Wire Wire Line
	8800 5050 8800 5000
Connection ~ 8800 5050
Wire Wire Line
	8800 5050 9150 5050
Wire Wire Line
	8800 4800 8800 4550
Wire Wire Line
	8800 4550 8850 4550
Wire Wire Line
	9150 4800 9150 4550
Wire Wire Line
	9150 4550 9200 4550
Wire Wire Line
	9150 5000 9150 5050
Wire Wire Line
	9700 5100 9450 5100
Wire Notes Line
	10850 5750 4100 5750
$Comp
L Device:R_Small R26
U 1 1 5F6081D9
P 10050 4900
F 0 "R26" H 10080 4920 50  0000 L CNN
F 1 "10K" H 10080 4860 50  0000 L CNN
F 2 "Resistor_SMD:R_0805_2012Metric" H 10050 4900 50  0001 C CNN
F 3 "~" H 10050 4900 50  0001 C CNN
	1    10050 4900
	1    0    0    1   
$EndComp
Wire Wire Line
	10050 4800 10050 4200
Connection ~ 10050 4200
Wire Wire Line
	10050 4200 10550 4200
Wire Wire Line
	9700 5450 10050 5450
Wire Wire Line
	10050 5450 10050 5000
Connection ~ 9700 5450
Wire Wire Line
	9700 5450 9700 5400
Text Notes 10550 5600 1    50   ~ 0
R26 provides path for leakage\ncurrent from E1 to E2 via sweaty\nhands (prevents false triggers). 
Text Notes 8700 3850 0    50   ~ 0
High power thyristor switches\n(2x1210 A for 10 ms).
Text Notes 5450 5700 0    50   ~ 0
This gate driver is huge overkill for thyristor control\n(first version used many MOSFETS in parallel without success).
$EndSCHEMATC
